{
  "name": "MunerisAppleIapKit",
  "version": "5.9.1",
  "summary": "The Muneris AppleIap Framework.",
  "description": "Muneris is a middleware platform for mobile applications, providing such services as multi-store in-app billing abstractions, ads mediation, game services, 3rd-party SDKs abstractions, etc.",
  "homepage": "https://www.muneris.io",
  "license": {
    "type": "Commercial",
    "text": "BY DOWNLOADING THE MUNERIS SDK FRAMEWORK, YOU ARE AGREEING TO THE TERMS AND CONDITIONS OF THE MUNERIS SDK LICENSE AGREEMENT LOCATED AT https://www.muneris.io/legal/#sdk-license. IF YOU DO NOT AGREE TO THE TERMS AND CONDITIONS OF THE MUNERIS SDK LICENSE AGREEMENT, YOU ARE NOT AUTHORIZED TO AND YOU MAY NOT DOWNLOAD THE MUNERIS SDK FRAMEWORK."
  },
  "authors": {
    "Muneris": "support@muneris.io"
  },
  "platforms": {
    "ios": "7.0"
  },
  "source": {
    "http": "https://repo.muneris.io/ios-releases/5.9.1/1kqd1dbi/MunerisAppleIapKit-5.9.1.zip"
  },
  "frameworks": [
    "Foundation",
    "StoreKit"
  ],
  "requires_arc": true,
  "dependencies": {
    "MunerisVirtualGoodKit": [
      "5.9.0"
    ]
  },
  "compiler_flags": "-Werror=objc-method-access -DMUNERIS_VERSION=\\\"5.9.1\\\"",
  "ios": {
    "preserve_paths": "MunerisAppleIapKit.framework",
    "vendored_frameworks": "MunerisAppleIapKit.framework"
  }
}