{
  "name": "MunerisVirtualGoodKit",
  "version": "5.2.0",
  "summary": "The Muneris VirtualGood Framework.",
  "description": "Muneris is a middleware platform for mobile applications, providing such services as multi-store in-app billing abstractions, ads mediation, game services, 3rd-party SDKs abstractions, etc.",
  "homepage": "https://www.muneris.io",
  "license": {
    "type": "Commercial",
    "text": "BY DOWNLOADING THE MUNERIS SDK FRAMEWORK, YOU ARE AGREEING TO THE TERMS AND CONDITIONS OF THE MUNERIS SDK LICENSE AGREEMENT LOCATED AT https://www.muneris.io/legal/#sdk-license. IF YOU DO NOT AGREE TO THE TERMS AND CONDITIONS OF THE MUNERIS SDK LICENSE AGREEMENT, YOU ARE NOT AUTHORIZED TO AND YOU MAY NOT DOWNLOAD THE MUNERIS SDK FRAMEWORK."
  },
  "authors": {
    "Muneris": "support@muneris.io"
  },
  "platforms": {
    "ios": "7.0"
  },
  "source": {
    "http": "https://repo.muneris.io/ios-releases/5.2.0/f034l477/MunerisVirtualGoodKit.zip"
  },
  "frameworks": [
    "StoreKit",
    "Foundation"
  ],
  "dependencies": {
    "MunerisAppEventKit": [
      "5.2.0"
    ],
    "MunerisVirtualItemKit": [
      "5.2.0"
    ]
  },
  "compiler_flags": "-Werror=objc-method-access -DMUNERIS_VERSION=\\\"5.2.0\\\"",
  "ios": {
    "preserve_paths": "MunerisVirtualGoodKit.framework",
    "public_header_files": "MunerisVirtualGoodKit.framework/Versions/A/Headers/*.h",
    "vendored_frameworks": "MunerisVirtualGoodKit.framework"
  }
}