{
  "name": "MunerisHeyzapKit",
  "version": "5.9.1",
  "summary": "A short description of MunerisHeyzapKit.",
  "description": "Muneris is a middleware platform for mobile applications, providing such services as multi-store in-app billing abstractions, ads mediation, game services, 3rd-party SDKs abstractions, etc.",
  "homepage": "https://www.muneris.io",
  "license": {
    "type": "Commercial",
    "text": "BY DOWNLOADING THE MUNERIS SDK FRAMEWORK, YOU ARE AGREEING TO THE TERMS AND CONDITIONS OF THE MUNERIS SDK LICENSE AGREEMENT LOCATED AT https://www.muneris.io/legal/#sdk-license. IF YOU DO NOT AGREE TO THE TERMS AND CONDITIONS OF THE MUNERIS SDK LICENSE AGREEMENT, YOU ARE NOT AUTHORIZED TO AND YOU MAY NOT DOWNLOAD THE MUNERIS SDK FRAMEWORK."
  },
  "authors": {
    "Muneris": "support@muneris.io"
  },
  "source": {
    "http": "https://repo.muneris.io/ios-releases/5.9.1/5hg4brxv/MunerisHeyzapKit-5.9.1.zip"
  },
  "platforms": {
    "ios": "8.0"
  },
  "requires_arc": true,
  "dependencies": {
    "MunerisAppEventKit": [
      "5.9.0"
    ],
    "MunerisTakeoverKit": [
      "5.9.0"
    ],
    "MunerisBannerAdKit": [
      "5.9.0"
    ],
    "Vendor-Heyzap": [
      "9.15.4"
    ]
  },
  "frameworks": [
    "AdSupport",
    "CoreGraphics",
    "CoreLocation",
    "CoreTelephony",
    "MediaPlayer",
    "MessageUI",
    "MobileCoreServices",
    "QuartzCore",
    "Security",
    "StoreKit",
    "SystemConfiguration"
  ],
  "libraries": [
    "sqlite3",
    "xml2"
  ],
  "compiler_flags": "-Werror=objc-method-access -DMUNERIS_VERSION=\\\"5.9.1\\\"",
  "ios": {
    "preserve_paths": "MunerisHeyzapKit.framework",
    "vendored_frameworks": "MunerisHeyzapKit.framework"
  }
}