{
  "name": "MunerisAmazonAdsKit",
  "version": "5.3.0",
  "summary": "The Muneris AmazonAds Framework.",
  "description": "Muneris is a middleware platform for mobile applications, providing such services as multi-store in-app billing abstractions, ads mediation, game services, 3rd-party SDKs abstractions, etc.",
  "homepage": "https://www.muneris.io",
  "license": {
    "type": "Commercial",
    "text": "BY DOWNLOADING THE MUNERIS SDK FRAMEWORK, YOU ARE AGREEING TO THE TERMS AND CONDITIONS OF THE MUNERIS SDK LICENSE AGREEMENT LOCATED AT https://www.muneris.io/legal/#sdk-license. IF YOU DO NOT AGREE TO THE TERMS AND CONDITIONS OF THE MUNERIS SDK LICENSE AGREEMENT, YOU ARE NOT AUTHORIZED TO AND YOU MAY NOT DOWNLOAD THE MUNERIS SDK FRAMEWORK."
  },
  "authors": {
    "Muneris": "support@muneris.io"
  },
  "platforms": {
    "ios": "7.0"
  },
  "source": {
    "http": "https://repo.muneris.io/ios-releases/5.3.0/ogyxrxma/MunerisAmazonAdsKit.zip"
  },
  "frameworks": [
    "Foundation",
    "UIKit",
    "AdSupport"
  ],
  "dependencies": {
    "MunerisAppEventKit": [
      "5.3.0"
    ],
    "MunerisTakeoverKit": [
      "5.3.0"
    ],
    "MunerisBannerAdKit": [
      "5.3.0"
    ],
    "Vendor-AmazonAd": [
      "2.2.10"
    ]
  },
  "compiler_flags": "-Werror=objc-method-access -DMUNERIS_VERSION=\\\"5.3.0\\\"",
  "ios": {
    "preserve_paths": "MunerisAmazonAdsKit.framework",
    "public_header_files": "MunerisAmazonAdsKit.framework/Versions/A/Headers/*.h",
    "vendored_frameworks": "MunerisAmazonAdsKit.framework"
  }
}