{
    "name": "MunerisScreenRecorderCpp", 
    "version": "5.8.0", 
    "summary": "MunerisScreenRecorderKit C++ Wrapper", 
    "description": "Muneris is a middleware platform for mobile applications, providing such services as multi-store in-app billing abstractions, ads mediation, game services, 3rd-party SDKs abstractions, etc.", 
    "license": {
        "type": "Commercial", 
        "text": "BY DOWNLOADING THE MUNERIS SDK FRAMEWORK, YOU ARE AGREEING TO THE TERMS AND CONDITIONS OF THE MUNERIS SDK LICENSE AGREEMENT LOCATED AT https://www.muneris.io/legal/#sdk-license. IF YOU DO NOT AGREE TO THE TERMS AND CONDITIONS OF THE MUNERIS SDK LICENSE AGREEMENT, YOU ARE NOT AUTHORIZED TO AND YOU MAY NOT DOWNLOAD THE MUNERIS SDK FRAMEWORK."
    }, 
    "homepage": "https://www.muneris.io", 
    "authors": {
        "Muneris": "support@muneris.io"
    }, 
    "source": {
        "http": "https://repo.muneris.io/ios-releases/5.8.0/MunerisScreenRecorderCpp.zip?t=1488787816"
    }, 
    "platforms": {
        "ios": 7.0
    }, 
    "source_files": [
        "**/*.{h,m,mm,cpp,hpp}"
    ], 
    "public_header_files": [
        "**/*.{h,hpp}"
    ], 
    "private_header_files": [
        "**/bridge/**/*.h"
    ], 
    "header_mappings_dir": ".", 
    "requires_arc": false, 
    "frameworks": "Foundation", 
    "xcconfig": {
        "GCC_ENABLE_CPP_EXCEPTIONS": "YES", 
        "GCC_ENABLE_CPP_RTTI": "YES", 
        "CLANG_CXX_LANGUAGE_STANDARD": "c++0x", 
        "CLANG_CXX_LIBRARY": "libc++", 
        "OTHER_LDFLAGS": "-ObjC"
    }, 
    "compiler_flags": "-Wno-nullability-completeness", 
    "dependencies": {
        "MunerisCoreCpp": [
            "5.8.0"
        ], 
        "MunerisScreenRecorderKit": [
            "5.8.0"
        ], 
        "MunerisTakeoverCpp": [
            "5.8.0"
        ]
    }, 
    "libraries": [
        "c++"
    ]
}