{
  "name": "MunerisHeyzapAdcolonyKit",
  "version": "5.9.1",
  "summary": "The Muneris Heyzap Adcolony Framework.",
  "description": "Muneris is a middleware platform for mobile applications, providing such services as multi-store in-app billing abstractions, ads mediation, game services, 3rd-party SDKs abstractions, etc.",
  "homepage": "https://www.muneris.io",
  "license": {
    "type": "Commercial",
    "text": "BY DOWNLOADING THE MUNERIS SDK FRAMEWORK, YOU ARE AGREEING TO THE TERMS AND CONDITIONS OF THE MUNERIS SDK LICENSE AGREEMENT LOCATED AT https://www.muneris.io/legal/#sdk-license. IF YOU DO NOT AGREE TO THE TERMS AND CONDITIONS OF THE MUNERIS SDK LICENSE AGREEMENT, YOU ARE NOT AUTHORIZED TO AND YOU MAY NOT DOWNLOAD THE MUNERIS SDK FRAMEWORK."
  },
  "authors": {
    "Muneris": "support@muneris.io"
  },
  "platforms": {
    "ios": "8.0"
  },
  "source": {
    "http": "https://repo.muneris.io/ios-releases/5.9.1/by17eab2/MunerisHeyzapAdcolonyKit-5.9.1.zip"
  },
  "dependencies": {
    "AdColony": [
      "3.2.1"
    ],
    "MunerisHeyzapKit": [
      "5.9.1"
    ]
  },
  "compiler_flags": "-Werror=objc-method-access -DMUNERIS_VERSION=\\\"5.9.1\\\"",
  "ios": {
    "preserve_paths": "MunerisHeyzapAdcolonyKit.framework",
    "vendored_frameworks": "MunerisHeyzapAdcolonyKit.framework"
  }
}