{
  "name": "MunerisAdmobAppLovinKit",
  "version": "5.8.0",
  "summary": "The Muneris Admob AppLovin Framework.",
  "description": "Muneris is a middleware platform for mobile applications, providing such services as multi-store in-app billing abstractions, ads mediation, game services, 3rd-party SDKs abstractions, etc.",
  "homepage": "https://www.muneris.io",
  "license": {
    "type": "Commercial",
    "text": "BY DOWNLOADING THE MUNERIS SDK FRAMEWORK, YOU ARE AGREEING TO THE TERMS AND CONDITIONS OF THE MUNERIS SDK LICENSE AGREEMENT LOCATED AT https://www.muneris.io/legal/#sdk-license. IF YOU DO NOT AGREE TO THE TERMS AND CONDITIONS OF THE MUNERIS SDK LICENSE AGREEMENT, YOU ARE NOT AUTHORIZED TO AND YOU MAY NOT DOWNLOAD THE MUNERIS SDK FRAMEWORK."
  },
  "authors": {
    "Muneris": "support@muneris.io"
  },
  "platforms": {
    "ios": "7.0"
  },
  "source": {
    "http": "https://repo.muneris.io/ios-releases/5.8.0/4me38cae/MunerisAdmobAppLovinKit-5.8.0.zip"
  },
  "frameworks": [
    "Foundation",
    "AdSupport",
    "AVFoundation",
    "CoreTelephony",
    "CoreGraphics",
    "CoreMedia",
    "StoreKit",
    "SystemConfiguration",
    "UIKit"
  ],
  "requires_arc": true,
  "dependencies": {
    "Vendor-AppLovin": [
      "3.4.1"
    ],
    "Vendor-Admob-AppLovin": [
      "1.0.0"
    ],
    "MunerisAdmobKit": [
      "5.8.0"
    ]
  },
  "compiler_flags": "-Werror=objc-method-access -DMUNERIS_VERSION=\\\"5.8.0\\\"",
  "ios": {
    "preserve_paths": "MunerisAdmobAppLovinKit.framework",
    "vendored_frameworks": "MunerisAdmobAppLovinKit.framework"
  }
}