{
  "name": "MunerisFyberTremorKit",
  "version": "5.2.0",
  "summary": "The Muneris Fyber Tremor Framework.",
  "description": "Muneris is a middleware platform for mobile applications, providing such services as multi-store in-app billing abstractions, ads mediation, game services, 3rd-party SDKs abstractions, etc.",
  "homepage": "https://www.muneris.io",
  "license": {
    "type": "Commercial",
    "text": "BY DOWNLOADING THE MUNERIS SDK FRAMEWORK, YOU ARE AGREEING TO THE TERMS AND CONDITIONS OF THE MUNERIS SDK LICENSE AGREEMENT LOCATED AT https://www.muneris.io/legal/#sdk-license. IF YOU DO NOT AGREE TO THE TERMS AND CONDITIONS OF THE MUNERIS SDK LICENSE AGREEMENT, YOU ARE NOT AUTHORIZED TO AND YOU MAY NOT DOWNLOAD THE MUNERIS SDK FRAMEWORK."
  },
  "authors": {
    "Muneris": "support@muneris.io"
  },
  "platforms": {
    "ios": "7.0"
  },
  "source": {
    "http": "https://repo.muneris.io/ios-releases/5.2.0/jf4zl6ql/MunerisFyberTremorKit.zip"
  },
  "dependencies": {
    "Vendor-Fyber-Tremor": [
      "3.11.1.34-r1"
    ],
    "MunerisFyberKit": [
      "5.2.0"
    ],
    "MunerisAppEventKit": [
      "5.2.0"
    ]
  },
  "frameworks": [
    "Accounts",
    "AdSupport",
    "AssetsLibrary",
    "AudioToolbox",
    "AVFoundation",
    "CoreGraphics",
    "CoreLocation",
    "CoreMedia",
    "CoreTelephony",
    "MapKit",
    "MediaPlayer",
    "MessageUI",
    "QuartzCore",
    "SystemConfiguration",
    "VTwitter"
  ],
  "compiler_flags": "-Werror=objc-method-access -DMUNERIS_VERSION=\\\"5.2.0\\\"",
  "ios": {
    "preserve_paths": "MunerisFyberTremorKit.framework",
    "public_header_files": "MunerisFyberTremorKit.framework/Versions/A/Headers/*.h",
    "vendored_frameworks": "MunerisFyberTremorKit.framework"
  }
}