{
    "name": "MunerisBannerAdBridge", 
    "version": "5.1.0", 
    "summary": "MunerisBannerAdKit Unity Bridge", 
    "description": "Muneris is a middleware platform for mobile applications, providing such services as multi-store in-app billing abstractions, ads mediation, game services, 3rd-party SDKs abstractions, etc.", 
    "license": {
        "type": "Commercial", 
        "text": "BY DOWNLOADING THE MUNERIS SDK FRAMEWORK, YOU ARE AGREEING TO THE TERMS AND CONDITIONS OF THE MUNERIS SDK LICENSE AGREEMENT LOCATED AT https://www.muneris.io/legal/#sdk-license. IF YOU DO NOT AGREE TO THE TERMS AND CONDITIONS OF THE MUNERIS SDK LICENSE AGREEMENT, YOU ARE NOT AUTHORIZED TO AND YOU MAY NOT DOWNLOAD THE MUNERIS SDK FRAMEWORK."
    }, 
    "homepage": "https://www.muneris.io", 
    "authors": {
        "Muneris": "support@muneris.io"
    }, 
    "source": {
        "http": "https://repo.muneris.io/ios-releases/5.1.0/MunerisBannerAdBridge.zip?t=1455248916"
    }, 
    "platforms": {
        "ios": 7.0
    }, 
    "source_files": [
        "**/*.{h,m,mm,cpp,hpp}"
    ], 
    "public_header_files": [
        "**/*.{h,hpp}"
    ], 
    "header_mappings_dir": ".", 
    "requires_arc": false, 
    "frameworks": "Foundation", 
    "xcconfig": {
        "GCC_ENABLE_CPP_EXCEPTIONS": "YES", 
        "GCC_ENABLE_CPP_RTTI": "YES", 
        "GCC_PREPROCESSOR_DEFINITIONS": "MUNERIS_UNITY=1"
    }, 
    "dependencies": {
        "MunerisBannerAdKit": [
            "5.1.0"
        ], 
        "MunerisCoreBridge": [
            "5.1.0"
        ]
    }
}