{
  "name": "MunerisHeyzapAdmobKit",
  "version": "5.3.0",
  "summary": "The Muneris Heyzap Admob Framework.",
  "description": "Muneris is a middleware platform for mobile applications, providing such services as multi-store in-app billing abstractions, ads mediation, game services, 3rd-party SDKs abstractions, etc.",
  "homepage": "https://www.muneris.io",
  "license": {
    "type": "Commercial",
    "text": "BY DOWNLOADING THE MUNERIS SDK FRAMEWORK, YOU ARE AGREEING TO THE TERMS AND CONDITIONS OF THE MUNERIS SDK LICENSE AGREEMENT LOCATED AT https://www.muneris.io/legal/#sdk-license. IF YOU DO NOT AGREE TO THE TERMS AND CONDITIONS OF THE MUNERIS SDK LICENSE AGREEMENT, YOU ARE NOT AUTHORIZED TO AND YOU MAY NOT DOWNLOAD THE MUNERIS SDK FRAMEWORK."
  },
  "authors": {
    "Muneris": "support@muneris.io"
  },
  "platforms": {
    "ios": "7.0"
  },
  "source": {
    "http": "https://repo.muneris.io/ios-releases/5.3.0/rajh4937/MunerisHeyzapAdmobKit.zip"
  },
  "frameworks": [
    "Foundation",
    "UIKit"
  ],
  "dependencies": {
    "Vendor-Heyzap-Admob": [
      "7.7.0"
    ],
    "MunerisHeyzapKit": [
      "5.3.0"
    ],
    "MunerisAppEventKit": [
      "5.3.0"
    ]
  },
  "compiler_flags": "-Werror=objc-method-access -DMUNERIS_VERSION=\\\"5.3.0\\\"",
  "ios": {
    "preserve_paths": "MunerisHeyzapAdmobKit.framework",
    "public_header_files": "MunerisHeyzapAdmobKit.framework/Versions/A/Headers/*.h",
    "vendored_frameworks": "MunerisHeyzapAdmobKit.framework"
  }
}