{
  "name": "MunerisFusepoweredKit",
  "version": "5.7.2",
  "summary": "The Muneris Fusepowered Framework.",
  "description": "Muneris is a middleware platform for mobile applications, providing such services as multi-store in-app billing abstractions, ads mediation, game services, 3rd-party SDKs abstractions, etc.",
  "homepage": "https://www.muneris.io",
  "license": {
    "type": "Commercial",
    "text": "BY DOWNLOADING THE MUNERIS SDK FRAMEWORK, YOU ARE AGREEING TO THE TERMS AND CONDITIONS OF THE MUNERIS SDK LICENSE AGREEMENT LOCATED AT https://www.muneris.io/legal/#sdk-license. IF YOU DO NOT AGREE TO THE TERMS AND CONDITIONS OF THE MUNERIS SDK LICENSE AGREEMENT, YOU ARE NOT AUTHORIZED TO AND YOU MAY NOT DOWNLOAD THE MUNERIS SDK FRAMEWORK."
  },
  "authors": {
    "Muneris": "support@muneris.io"
  },
  "platforms": {
    "ios": "7.0"
  },
  "source": {
    "http": "https://repo.muneris.io/ios-releases/5.7.2/cqqjio8i/MunerisFusepoweredKit-5.7.2.zip"
  },
  "frameworks": [
    "Accelerate",
    "AudioToolbox",
    "AVFoundation",
    "CoreGraphics",
    "CoreLocation",
    "CoreMedia",
    "CoreTelephony",
    "EventKit",
    "EventKitUI",
    "GameKit",
    "iAd",
    "MediaPlayer",
    "MessageUI",
    "MobileCoreServices",
    "QuartzCore",
    "SystemConfiguration",
    "Twitter",
    "WebKit"
  ],
  "weak_frameworks": [
    "AdSupport",
    "Foundation",
    "Social",
    "StoreKit",
    "UIKit"
  ],
  "libraries": [
    "sqlite3",
    "xml2",
    "z"
  ],
  "requires_arc": true,
  "dependencies": {
    "MunerisAppEventKit": [
      "5.7.2"
    ],
    "MunerisTakeoverKit": [
      "5.7.2"
    ],
    "Vendor-Fusepowered": [
      "2.6.4"
    ]
  },
  "compiler_flags": "-Werror=objc-method-access -DMUNERIS_VERSION=\\\"5.7.2\\\"",
  "ios": {
    "preserve_paths": "MunerisFusepoweredKit.framework",
    "vendored_frameworks": "MunerisFusepoweredKit.framework"
  }
}